﻿{
    "version": 3,
    "configurePresets": [
      {
        "name": "Windows-base",
        "hidden": true,
        "generator": "Ninja",
        "binaryDir": "${sourceDir}/out/build/${presetName}",
        "condition": {
          "type": "equals",
          "lhs": "${hostSystemName}",
          "rhs": "Windows"
        }
      },
      {
        "name": "Windows-x86-Debug",
        "inherits": "Windows-base",
        "architecture": {
          "value": "x86",
          "strategy": "external"
        },
        "toolset": {
          "value": "host=x86",
          "strategy": "external"
        },
        "cacheVariables": {
          "CMAKE_TOOLCHAIN_FILE": "C:\\vcpkg\\scripts\\buildsystems\\vcpkg.cmake",
          "CMAKE_BUILD_TYPE": "Debug",
          "OUT_FILE_SUFFIX": "x86"
        }
      },
      {
        "name": "Windows-x86-Release",
        "inherits": "Windows-base",
        "architecture": {
          "value": "x86",
          "strategy": "external"
        },
        "toolset": {
          "value": "host=x86",
          "strategy": "external"
        },
        "cacheVariables": {
          "CMAKE_TOOLCHAIN_FILE": "C:\\vcpkg\\scripts\\buildsystems\\vcpkg.cmake",
          "VCPKG_TARGET_TRIPLET": "x86-windows-static",
          "CMAKE_BUILD_TYPE": "Release",
          "OUT_FILE_SUFFIX": "x86"
        }
      }
    ],  
    "buildPresets": [
      {
        "name": "Windows-x86-Debug",
        "configurePreset": "Windows-x86-Debug"
      },
      {
        "name": "Windows-x86-Release",
        "configurePreset": "Windows-x86-Release"
      }
    ]
}
  