{
  "$schema": "https://raw.githubusercontent.com/microsoft/vcpkg-tool/main/docs/vcpkg.schema.json",
  "name": "mumbleclient",
  "version-string": "0.1.0",
  "dependencies": [
    "asio",
    "protobuf",
    "openssl",
    "opus",
    "portaudio"
  ]
}
